{
    "Villes_Denormandie": [
        {
            "id": 1,
            "Ville": "Ambérieu-en-Bugey",
            "Code_insee": "01004"
        },
        {
            "id": 2,
            "Ville": "Bourg-en-Bresse",
            "Code_insee": "01053"
        },
        {
            "id": 3,
            "Ville": "Oyonnax",
            "Code_insee": "01283"
        },
        {
            "id": 4,
            "Ville": "Château-Thierry",
            "Code_insee": "02168"
        },
        {
            "id": 5,
            "Ville": "Laon",
            "Code_insee": "02408"
        },
        {
            "id": 6,
            "Ville": "Saint-Quentin",
            "Code_insee": "02691"
        },
        {
            "id": 7,
            "Ville": "Soissons",
            "Code_insee": "02722"
        },
        {
            "id": 8,
            "Ville": "Montluçon",
            "Code_insee": "03185"
        },
        {
            "id": 9,
            "Ville": "Moulins",
            "Code_insee": "03190"
        },
        {
            "id": 10,
            "Ville": "Vichy",
            "Code_insee": "03310"
        },
        {
            "id": 11,
            "Ville": "Digne-les-Bains",
            "Code_insee": "04070"
        },
        {
            "id": 12,
            "Ville": "Manosque",
            "Code_insee": "04112"
        },
        {
            "id": 13,
            "Ville": "Briançon",
            "Code_insee": "05023"
        },
        {
            "id": 14,
            "Ville": "Gap",
            "Code_insee": "05061"
        },
        {
            "id": 15,
            "Ville": "Grasse",
            "Code_insee": "06069"
        },
        {
            "id": 16,
            "Ville": "Vallauris",
            "Code_insee": "06155"
        },
        {
            "id": 17,
            "Ville": "Annonay",
            "Code_insee": "07010"
        },
        {
            "id": 18,
            "Ville": "Aubenas",
            "Code_insee": "07019"
        },
        {
            "id": 19,
            "Ville": "Privas",
            "Code_insee": "07186"
        },
        {
            "id": 20,
            "Ville": "Charleville-Mézières",
            "Code_insee": "08105"
        },
        {
            "id": 21,
            "Ville": "Sedan",
            "Code_insee": "08409"
        },
        {
            "id": 22,
            "Ville": "Foix",
            "Code_insee": "09122"
        },
        {
            "id": 23,
            "Ville": "Pamiers",
            "Code_insee": "09225"
        },
        {
            "id": 24,
            "Ville": "Troyes",
            "Code_insee": "10387"
        },
        {
            "id": 25,
            "Ville": "Carcassonne",
            "Code_insee": "11069"
        },
        {
            "id": 26,
            "Ville": "Narbonne",
            "Code_insee": "11262"
        },
        {
            "id": 27,
            "Ville": "Millau",
            "Code_insee": "12145"
        },
        {
            "id": 28,
            "Ville": "Rodez",
            "Code_insee": "12202"
        },
        {
            "id": 29,
            "Ville": "Villefranche-de-Rouergue",
            "Code_insee": "12300"
        },
        {
            "id": 30,
            "Ville": "Arles",
            "Code_insee": "13004"
        },
        {
            "id": 31,
            "Ville": "Tarascon",
            "Code_insee": "13108"
        },
        {
            "id": 32,
            "Ville": "Lisieux",
            "Code_insee": "14366"
        },
        {
            "id": 33,
            "Ville": "Vire",
            "Code_insee": "14762"
        },
        {
            "id": 34,
            "Ville": "Aurillac",
            "Code_insee": "15014"
        },
        {
            "id": 35,
            "Ville": "Angoulême",
            "Code_insee": "16015"
        },
        {
            "id": 36,
            "Ville": "Cognac",
            "Code_insee": "16102"
        },
        {
            "id": 37,
            "Ville": "Rochefort",
            "Code_insee": "17299"
        },
        {
            "id": 38,
            "Ville": "Saintes",
            "Code_insee": "17415"
        },
        {
            "id": 39,
            "Ville": "Bourges",
            "Code_insee": "18033"
        },
        {
            "id": 40,
            "Ville": "Vierzon",
            "Code_insee": "18279"
        },
        {
            "id": 41,
            "Ville": "Brive-la-Gaillarde",
            "Code_insee": "19031"
        },
        {
            "id": 42,
            "Ville": "Tulle",
            "Code_insee": "19272"
        },
        {
            "id": 43,
            "Ville": "Ajaccio",
            "Code_insee": "2A004"
        },
        {
            "id": 44,
            "Ville": "Bastia",
            "Code_insee": "2B033"
        },
        {
            "id": 45,
            "Ville": "Lannion",
            "Code_insee": "22113"
        },
        {
            "id": 46,
            "Ville": "Saint-Brieuc",
            "Code_insee": "22278"
        },
        {
            "id": 47,
            "Ville": "Guéret",
            "Code_insee": "23096"
        },
        {
            "id": 48,
            "Ville": "Bergerac",
            "Code_insee": "24037"
        },
        {
            "id": 49,
            "Ville": "Périgueux",
            "Code_insee": "24322"
        },
        {
            "id": 50,
            "Ville": "Besançon",
            "Code_insee": "25056"
        },
        {
            "id": 51,
            "Ville": "Montbéliard",
            "Code_insee": "25388"
        },
        {
            "id": 52,
            "Ville": "Montélimar",
            "Code_insee": "26198"
        },
        {
            "id": 53,
            "Ville": "Romans-sur-Isère",
            "Code_insee": "26281"
        },
        {
            "id": 54,
            "Ville": "Valence",
            "Code_insee": "26362"
        },
        {
            "id": 55,
            "Ville": "Évreux",
            "Code_insee": "27229"
        },
        {
            "id": 56,
            "Ville": "Louviers",
            "Code_insee": "27375"
        },
        {
            "id": 57,
            "Ville": "Vernon",
            "Code_insee": "27681"
        },
        {
            "id": 58,
            "Ville": "Chartres",
            "Code_insee": "28085"
        },
        {
            "id": 59,
            "Ville": "Dreux",
            "Code_insee": "28134"
        },
        {
            "id": 60,
            "Ville": "Nogent-le-Routrou",
            "Code_insee": "28280"
        },
        {
            "id": 61,
            "Ville": "Morlaix",
            "Code_insee": "29151"
        },
        {
            "id": 62,
            "Ville": "Quimper",
            "Code_insee": "29232"
        },
        {
            "id": 63,
            "Ville": "Alès",
            "Code_insee": "30007"
        },
        {
            "id": 64,
            "Ville": "Bagnols-sur-Cèze",
            "Code_insee": "30028"
        },
        {
            "id": 65,
            "Ville": "Saint Gilles",
            "Code_insee": "30258"
        },
        {
            "id": 66,
            "Ville": "Revel",
            "Code_insee": "31451"
        },
        {
            "id": 67,
            "Ville": "Auch",
            "Code_insee": "32013"
        },
        {
            "id": 68,
            "Ville": "Libourne",
            "Code_insee": "33243"
        },
        {
            "id": 69,
            "Ville": "Agde",
            "Code_insee": "34003"
        },
        {
            "id": 70,
            "Ville": "Béziers",
            "Code_insee": "34032"
        },
        {
            "id": 71,
            "Ville": "Lunel",
            "Code_insee": "34145"
        },
        {
            "id": 72,
            "Ville": "Sète",
            "Code_insee": "34301"
        },
        {
            "id": 73,
            "Ville": "Fougères",
            "Code_insee": "35115"
        },
        {
            "id": 74,
            "Ville": "Redon",
            "Code_insee": "35236"
        },
        {
            "id": 75,
            "Ville": "Saint-Malo",
            "Code_insee": "35288"
        },
        {
            "id": 76,
            "Ville": "Vitré",
            "Code_insee": "35360"
        },
        {
            "id": 77,
            "Ville": "Châteauroux",
            "Code_insee": "36044"
        },
        {
            "id": 78,
            "Ville": "Issoudun",
            "Code_insee": "36088"
        },
        {
            "id": 79,
            "Ville": "Chinon",
            "Code_insee": "37072"
        },
        {
            "id": 80,
            "Ville": "Bourgoin-Jallieu",
            "Code_insee": "38053"
        },
        {
            "id": 81,
            "Ville": "Vienne",
            "Code_insee": "38544"
        },
        {
            "id": 82,
            "Ville": "Voiron",
            "Code_insee": "38563"
        },
        {
            "id": 83,
            "Ville": "Dole",
            "Code_insee": "39198"
        },
        {
            "id": 84,
            "Ville": "Lons-le-Saunier",
            "Code_insee": "39300"
        },
        {
            "id": 85,
            "Ville": "Dax",
            "Code_insee": "40088"
        },
        {
            "id": 86,
            "Ville": "Mont-de-Marsan",
            "Code_insee": "40192"
        },
        {
            "id": 87,
            "Ville": "Blois",
            "Code_insee": "41018"
        },
        {
            "id": 88,
            "Ville": "Romorantin-Lanthenay",
            "Code_insee": "41194"
        },
        {
            "id": 89,
            "Ville": "Montbrison",
            "Code_insee": "42147"
        },
        {
            "id": 90,
            "Ville": "Roanne",
            "Code_insee": "42187"
        },
        {
            "id": 91,
            "Ville": "Le Puy-en-Velay",
            "Code_insee": "43157"
        },
        {
            "id": 92,
            "Ville": "Chateaubriand",
            "Code_insee": "44036"
        },
        {
            "id": 93,
            "Ville": "Saint-Nazaire",
            "Code_insee": "44184"
        },
        {
            "id": 94,
            "Ville": "Gien",
            "Code_insee": "45155"
        },
        {
            "id": 95,
            "Ville": "Montargis",
            "Code_insee": "45208"
        },
        {
            "id": 96,
            "Ville": "Pithiviers",
            "Code_insee": "45252"
        },
        {
            "id": 97,
            "Ville": "Cahors",
            "Code_insee": "46042"
        },
        {
            "id": 98,
            "Ville": "Figeac",
            "Code_insee": "46102"
        },
        {
            "id": 99,
            "Ville": "Agen",
            "Code_insee": "47001"
        },
        {
            "id": 100,
            "Ville": "Marmande",
            "Code_insee": "47157"
        },
        {
            "id": 101,
            "Ville": "Tonneins",
            "Code_insee": "47310"
        },
        {
            "id": 102,
            "Ville": "Villeneuve-sur-Lot",
            "Code_insee": "47323"
        },
        {
            "id": 103,
            "Ville": "Mende",
            "Code_insee": "48095"
        },
        {
            "id": 104,
            "Ville": "Cholet",
            "Code_insee": "49099"
        },
        {
            "id": 105,
            "Ville": "Saumur",
            "Code_insee": "49328"
        },
        {
            "id": 106,
            "Ville": "Cherbourg-en-Cotentin",
            "Code_insee": "50129"
        },
        {
            "id": 107,
            "Ville": "Saint-Lô",
            "Code_insee": "50502"
        },
        {
            "id": 108,
            "Ville": "Châlons-en-Champagne",
            "Code_insee": "51108"
        },
        {
            "id": 109,
            "Ville": "Épernay",
            "Code_insee": "51230"
        },
        {
            "id": 110,
            "Ville": "Vitry-le-François",
            "Code_insee": "51649"
        },
        {
            "id": 111,
            "Ville": "Chaumont",
            "Code_insee": "52121"
        },
        {
            "id": 112,
            "Ville": "Saint-Dizier",
            "Code_insee": "52448"
        },
        {
            "id": 113,
            "Ville": "Laval",
            "Code_insee": "53130"
        },
        {
            "id": 114,
            "Ville": "Longwy",
            "Code_insee": "54323"
        },
        {
            "id": 115,
            "Ville": "Lunéville",
            "Code_insee": "54329"
        },
        {
            "id": 116,
            "Ville": "Toul",
            "Code_insee": "54528"
        },
        {
            "id": 117,
            "Ville": "Bar-le-Duc",
            "Code_insee": "55029"
        },
        {
            "id": 118,
            "Ville": "Verdun",
            "Code_insee": "55545"
        },
        {
            "id": 119,
            "Ville": "Lorient",
            "Code_insee": "56121"
        },
        {
            "id": 120,
            "Ville": "Pontivy",
            "Code_insee": "56178"
        },
        {
            "id": 121,
            "Ville": "Vannes",
            "Code_insee": "56260"
        },
        {
            "id": 122,
            "Ville": "Forbach",
            "Code_insee": "57227"
        },
        {
            "id": 123,
            "Ville": "Saint-Avold",
            "Code_insee": "57606"
        },
        {
            "id": 124,
            "Ville": "Sarrebourg",
            "Code_insee": "57630"
        },
        {
            "id": 125,
            "Ville": "Sarreguemines",
            "Code_insee": "57631"
        },
        {
            "id": 126,
            "Ville": "Thionville",
            "Code_insee": "57672"
        },
        {
            "id": 127,
            "Ville": "Cosne-Cours-sur-Loire",
            "Code_insee": "58086"
        },
        {
            "id": 128,
            "Ville": "Nevers",
            "Code_insee": "58194"
        },
        {
            "id": 129,
            "Ville": "Cambrai",
            "Code_insee": "59122"
        },
        {
            "id": 130,
            "Ville": "Denain",
            "Code_insee": "59172"
        },
        {
            "id": 131,
            "Ville": "Douai",
            "Code_insee": "59178"
        },
        {
            "id": 132,
            "Ville": "Dunkerque",
            "Code_insee": "59183"
        },
        {
            "id": 133,
            "Ville": "Maubeuge",
            "Code_insee": "59392"
        },
        {
            "id": 134,
            "Ville": "Valenciennes",
            "Code_insee": "59606"
        },
        {
            "id": 135,
            "Ville": "Tourcoing",
            "Code_insee": "59599"
        },
        {
            "id": 136,
            "Ville": "Roubaix",
            "Code_insee": "59512"
        },
        {
            "id": 137,
            "Ville": "Wattrelos",
            "Code_insee": "59650"
        },
        {
            "id": 138,
            "Ville": "Armentières",
            "Code_insee": "59017"
        },
        {
            "id": 139,
            "Ville": "Anzin",
            "Code_insee": "59014"
        },
        {
            "id": 140,
            "Ville": "Vieux-Condé",
            "Code_insee": "59616"
        },
        {
            "id": 141,
            "Ville": "Condé-sur-l'Escaut",
            "Code_insee": "59153"
        },
        {
            "id": 142,
            "Ville": "Houplines",
            "Code_insee": "59317"
        },
        {
            "id": 143,
            "Ville": "Fresnes-sur-Escaut",
            "Code_insee": "59253"
        },
        {
            "id": 144,
            "Ville": "Louvroil",
            "Code_insee": "59365"
        },
        {
            "id": 145,
            "Ville": "Beauvais",
            "Code_insee": "60057"
        },
        {
            "id": 146,
            "Ville": "Compiègne",
            "Code_insee": "60159"
        },
        {
            "id": 147,
            "Ville": "Creil",
            "Code_insee": "60175"
        },
        {
            "id": 148,
            "Ville": "Senlis",
            "Code_insee": "60612"
        },
        {
            "id": 149,
            "Ville": "Alençon",
            "Code_insee": "61001"
        },
        {
            "id": 150,
            "Ville": "Argentan",
            "Code_insee": "61006"
        },
        {
            "id": 151,
            "Ville": "Flers",
            "Code_insee": "61169"
        },
        {
            "id": 152,
            "Ville": "Arras",
            "Code_insee": "62041"
        },
        {
            "id": 153,
            "Ville": "Béthune",
            "Code_insee": "62119"
        },
        {
            "id": 154,
            "Ville": "Boulogne-sur-Mer",
            "Code_insee": "62160"
        },
        {
            "id": 155,
            "Ville": "Bruay la Buissière",
            "Code_insee": "62178"
        },
        {
            "id": 156,
            "Ville": "Calais",
            "Code_insee": "62193"
        },
        {
            "id": 157,
            "Ville": "Lens",
            "Code_insee": "62498"
        },
        {
            "id": 158,
            "Ville": "Lievin",
            "Code_insee": "62510"
        },
        {
            "id": 159,
            "Ville": "Saint-Omer",
            "Code_insee": "62765"
        },
        {
            "id": 160,
            "Ville": "Issoire",
            "Code_insee": "63178"
        },
        {
            "id": 161,
            "Ville": "Riom",
            "Code_insee": "63300"
        },
        {
            "id": 162,
            "Ville": "Thiers",
            "Code_insee": "63430"
        },
        {
            "id": 163,
            "Ville": "Bayonne",
            "Code_insee": "64102"
        },
        {
            "id": 164,
            "Ville": "Pau",
            "Code_insee": "64445"
        },
        {
            "id": 165,
            "Ville": "Lourdes",
            "Code_insee": "65286"
        },
        {
            "id": 166,
            "Ville": "Tarbes",
            "Code_insee": "65440"
        },
        {
            "id": 167,
            "Ville": "Perpignan",
            "Code_insee": "66136"
        },
        {
            "id": 168,
            "Ville": "Haguenau",
            "Code_insee": "67180"
        },
        {
            "id": 169,
            "Ville": "Saverne",
            "Code_insee": "67437"
        },
        {
            "id": 170,
            "Ville": "Colmar",
            "Code_insee": "68066"
        },
        {
            "id": 171,
            "Ville": "Guebwiller",
            "Code_insee": "68112"
        },
        {
            "id": 172,
            "Ville": "Tarare",
            "Code_insee": "69243"
        },
        {
            "id": 173,
            "Ville": "Vesoul",
            "Code_insee": "70550"
        },
        {
            "id": 174,
            "Ville": "Autun",
            "Code_insee": "71014"
        },
        {
            "id": 175,
            "Ville": "Châlon-sur-Saône",
            "Code_insee": "71076"
        },
        {
            "id": 176,
            "Ville": "Le Creusot",
            "Code_insee": "71153"
        },
        {
            "id": 177,
            "Ville": "Mâcon",
            "Code_insee": "71270"
        },
        {
            "id": 178,
            "Ville": "Montceau-les-Mines",
            "Code_insee": "71306"
        },
        {
            "id": 179,
            "Ville": "La Flèche",
            "Code_insee": "72154"
        },
        {
            "id": 180,
            "Ville": "Sablé-sur-Sarthe",
            "Code_insee": "72264"
        },
        {
            "id": 181,
            "Ville": "Chambéry",
            "Code_insee": "73065"
        },
        {
            "id": 182,
            "Ville": "Rumilly",
            "Code_insee": "74225"
        },
        {
            "id": 183,
            "Ville": "Dieppe",
            "Code_insee": "76217"
        },
        {
            "id": 184,
            "Ville": "Fécamp",
            "Code_insee": "76259"
        },
        {
            "id": 185,
            "Ville": "Elbeuf",
            "Code_insee": "76231"
        },
        {
            "id": 186,
            "Ville": "Avon",
            "Code_insee": "77014"
        },
        {
            "id": 187,
            "Ville": "Coulommiers",
            "Code_insee": "77131"
        },
        {
            "id": 188,
            "Ville": "Fontainebleau",
            "Code_insee": "77186"
        },
        {
            "id": 189,
            "Ville": "Meaux",
            "Code_insee": "77284"
        },
        {
            "id": 190,
            "Ville": "Melun",
            "Code_insee": "77288"
        },
        {
            "id": 191,
            "Ville": "Montereau-Fault-Yonne",
            "Code_insee": "77305"
        },
        {
            "id": 192,
            "Ville": "Nemours",
            "Code_insee": "77333"
        },
        {
            "id": 193,
            "Ville": "Les Mureaux",
            "Code_insee": "78440"
        },
        {
            "id": 194,
            "Ville": "Limay",
            "Code_insee": "77335"
        },
        {
            "id": 195,
            "Ville": "Mantes-la-Jolie",
            "Code_insee": "78361"
        },
        {
            "id": 196,
            "Ville": "Poissy",
            "Code_insee": "78498"
        },
        {
            "id": 197,
            "Ville": "Rambouillet",
            "Code_insee": "78517"
        },
        {
            "id": 198,
            "Ville": "Sartrouville",
            "Code_insee": "78586"
        },
        {
            "id": 199,
            "Ville": "Trappes",
            "Code_insee": "78621"
        },
        {
            "id": 200,
            "Ville": "Bressuire",
            "Code_insee": "79049"
        },
        {
            "id": 201,
            "Ville": "Niort",
            "Code_insee": "79191"
        },
        {
            "id": 202,
            "Ville": "Abbeville",
            "Code_insee": "80001"
        },
        {
            "id": 203,
            "Ville": "Albi",
            "Code_insee": "81004"
        },
        {
            "id": 204,
            "Ville": "Castres",
            "Code_insee": "81065"
        },
        {
            "id": 205,
            "Ville": "Mazamet",
            "Code_insee": "81163"
        },
        {
            "id": 206,
            "Ville": "Montauban",
            "Code_insee": "82121"
        },
        {
            "id": 207,
            "Ville": "Brignoles",
            "Code_insee": "83023"
        },
        {
            "id": 208,
            "Ville": "Draguignan",
            "Code_insee": "83050"
        },
        {
            "id": 209,
            "Ville": "Avignon",
            "Code_insee": "84007"
        },
        {
            "id": 210,
            "Ville": "Carpentras",
            "Code_insee": "84031"
        },
        {
            "id": 211,
            "Ville": "Cavaillon",
            "Code_insee": "84035"
        },
        {
            "id": 212,
            "Ville": "Fontenay-le-Comte",
            "Code_insee": "85092"
        },
        {
            "id": 213,
            "Ville": "La Roche-sur-Yon",
            "Code_insee": "85191"
        },
        {
            "id": 214,
            "Ville": "Châtellerault",
            "Code_insee": "86066"
        },
        {
            "id": 215,
            "Ville": "Poitiers",
            "Code_insee": "86194"
        },
        {
            "id": 216,
            "Ville": "Limoges",
            "Code_insee": "87085"
        },
        {
            "id": 217,
            "Ville": "Épinal",
            "Code_insee": "88160"
        },
        {
            "id": 218,
            "Ville": "Saint-Dié-des-Vosges",
            "Code_insee": "88413"
        },
        {
            "id": 219,
            "Ville": "Auxerre",
            "Code_insee": "89024"
        },
        {
            "id": 220,
            "Ville": "Sens",
            "Code_insee": "89387"
        },
        {
            "id": 221,
            "Ville": "Belfort",
            "Code_insee": "90010"
        },
        {
            "id": 222,
            "Ville": "Arpajon",
            "Code_insee": "91021"
        },
        {
            "id": 223,
            "Ville": "Corbeil-Essonnes",
            "Code_insee": "91174"
        },
        {
            "id": 224,
            "Ville": "Étampes",
            "Code_insee": "91223"
        },
        {
            "id": 225,
            "Ville": "Evry",
            "Code_insee": "91228"
        },
        {
            "id": 226,
            "Ville": "Saint-Michel-sur-Orge",
            "Code_insee": "91570"
        },
        {
            "id": 227,
            "Ville": "Beaumont-sur-Oise",
            "Code_insee": "95052"
        },
        {
            "id": 228,
            "Ville": "Gonesse",
            "Code_insee": "95277"
        },
        {
            "id": 229,
            "Ville": "Persan",
            "Code_insee": "95487"
        },
        {
            "id": 230,
            "Ville": "Basse-terre",
            "Code_insee": "97105"
        },
        {
            "id": 231,
            "Ville": "Les Abymes",
            "Code_insee": "97101"
        },
        {
            "id": 232,
            "Ville": "Pointe-à-Pitre",
            "Code_insee": "97120"
        },
        {
            "id": 233,
            "Ville": "Fort-de-France",
            "Code_insee": "97209"
        },
        {
            "id": 234,
            "Ville": "Le Lamentin",
            "Code_insee": "97213"
        },
        {
            "id": 235,
            "Ville": "Cayenne",
            "Code_insee": "97302"
        },
        {
            "id": 236,
            "Ville": "Saint-Laurent-du-Maroni",
            "Code_insee": "97311"
        },
        {
            "id": 237,
            "Ville": "Le Port",
            "Code_insee": "97407"
        },
        {
            "id": 238,
            "Ville": "Saint-André",
            "Code_insee": "97409"
        },
        {
            "id": 239,
            "Ville": "Saint-Joseph",
            "Code_insee": "97412"
        },
        {
            "id": 240,
            "Ville": "Saint-Pierre",
            "Code_insee": "97416"
        },
        {
            "id": 241,
            "Ville": "Dembéni",
            "Code_insee": "97607"
        },
        {
            "id": 242,
            "Ville": "Dzaoudzi",
            "Code_insee": "97608"
        },
        {
            "id": 243,
            "Ville": "Mamoudzou",
            "Code_insee": "97611"
        },
        {
            "id": 244,
            "Ville": "Pamandzi",
            "Code_insee": "97615"
        }
    ]
}